%YAML 1.1
%TAG !u! tag:unity3d.com,2011:
--- !u!1045 &1
EditorBuildSettings:
  m_ObjectHideFlags: 0
  serializedVersion: 2
  m_Scenes:
  - enabled: 1
    path: Assets/GameScene.unity
    guid: 861230e3a97c81840bf1fa8e9e57cc14
  m_configObjects: {}
